{
  "data": [
    {
      "id": 47179,
      "date": "2019-01-30T00:00:00.000Z",
      "home_team": {
        "id": 2,
        "abbreviation": "BOS",
        "city": "Boston",
        "conference": "East",
        "division": "Atlantic",
        "full_name": "Boston Celtics",
        "name": "Celtics"
      },
      "home_team_score": 126,
      "period": 4,
      "postseason": false,
      "season": 2018,
      "status": "Final",
      "time": " ",
      "visitor_team": {
        "id": 4,
        "abbreviation": "CHA",
        "city": "Charlotte",
        "conference": "East",
        "division": "Southeast",
        "full_name": "Charlotte Hornets",
        "name": "Hornets"
      },
      "visitor_team_score": 94
    },
    {
      "id": 48751,
      "date": "2019-02-09T00:00:00.000Z",
      "home_team": {
        "id": 2,
        "abbreviation": "BOS",
        "city": "Boston",
        "conference": "East",
        "division": "Atlantic",
        "full_name": "Boston Celtics",
        "name": "Celtics"
      },
      "home_team_score": 112,
      "period": 4,
      "postseason": false,
      "season": 2018,
      "status": "Final",
      "time": "     ",
      "visitor_team": {
        "id": 13,
        "abbreviation": "LAC",
        "city": "LA",
        "conference": "West",
        "division": "Pacific",
        "full_name": "LA Clippers",
        "name": "Clippers"
      },
      "visitor_team_score": 123
    },
    {
      "id": 48739,
      "date": "2019-02-08T00:00:00.000Z",
      "home_team": {
        "id": 23,
        "abbreviation": "PHI",
        "city": "Philadelphia",
        "conference": "East",
        "division": "Atlantic",
        "full_name": "Philadelphia 76ers",
        "name": "76ers"
      },
      "home_team_score": 117,
      "period": 4,
      "postseason": false,
      "season": 2018,
      "status": "Final",
      "time": "     ",
      "visitor_team": {
        "id": 8,
        "abbreviation": "DEN",
        "city": "Denver",
        "conference": "West",
        "division": "Northwest",
        "full_name": "Denver Nuggets",
        "name": "Nuggets"
      },
      "visitor_team_score": 110
    },
    {
      "id": 48740,
      "date": "2019-02-08T00:00:00.000Z",
      "home_team": {
        "id": 30,
        "abbreviation": "WAS",
        "city": "Washington",
        "conference": "East",
        "division": "Southeast",
        "full_name": "Washington Wizards",
        "name": "Wizards"
      },
      "home_team_score": 119,
      "period": 4,
      "postseason": false,
      "season": 2018,
      "status": "Final",
      "time": "     ",
      "visitor_team": {
        "id": 6,
        "abbreviation": "CLE",
        "city": "Cleveland",
        "conference": "East",
        "division": "Central",
        "full_name": "Cleveland Cavaliers",
        "name": "Cavaliers"
      },
      "visitor_team_score": 106
    },
    {
      "id": 48746,
      "date": "2019-02-08T00:00:00.000Z",
      "home_team": {
        "id": 26,
        "abbreviation": "SAC",
        "city": "Sacramento",
        "conference": "West",
        "division": "Pacific",
        "full_name": "Sacramento Kings",
        "name": "Kings"
      },
      "home_team_score": 102,
      "period": 4,
      "postseason": false,
      "season": 2018,
      "status": "Final",
      "time": "     ",
      "visitor_team": {
        "id": 16,
        "abbreviation": "MIA",
        "city": "Miami",
        "conference": "East",
        "division": "Southeast",
        "full_name": "Miami Heat",
        "name": "Heat"
      },
      "visitor_team_score": 96
    },
    {
      "id": 48762,
      "date": "2019-02-11T00:00:00.000Z",
      "home_team": {
        "id": 9,
        "abbreviation": "DET",
        "city": "Detroit",
        "conference": "East",
        "division": "Central",
        "full_name": "Detroit Pistons",
        "name": "Pistons"
      },
      "home_team_score": 121,
      "period": 4,
      "postseason": false,
      "season": 2018,
      "status": "Final",
      "time": "     ",
      "visitor_team": {
        "id": 30,
        "abbreviation": "WAS",
        "city": "Washington",
        "conference": "East",
        "division": "Southeast",
        "full_name": "Washington Wizards",
        "name": "Wizards"
      },
      "visitor_team_score": 112
    },
    {
      "id": 48745,
      "date": "2019-02-08T00:00:00.000Z",
      "home_team": {
        "id": 19,
        "abbreviation": "NOP",
        "city": "New Orleans",
        "conference": "West",
        "division": "Southwest",
        "full_name": "New Orleans Pelicans",
        "name": "Pelicans"
      },
      "home_team_score": 122,
      "period": 4,
      "postseason": false,
      "season": 2018,
      "status": "Final",
      "time": "     ",
      "visitor_team": {
        "id": 18,
        "abbreviation": "MIN",
        "city": "Minnesota",
        "conference": "West",
        "division": "Northwest",
        "full_name": "Minnesota Timberwolves",
        "name": "Timberwolves"
      },
      "visitor_team_score": 117
    }
  ],
  "meta": {
    "total_pages": 2050,
    "current_page": 1,
    "next_page": 2,
    "per_page": 25,
    "total_count": 51240
  }
}
